{
  "development": {
    "username": "admin_rauf",
    "password": "12345",
    "database": "db_auth_development",
    "host": "127.0.0.1",
    "dialect": "postgres"
  },
  "test": {
    "username": "admin_rauf",
    "password": "12345",
    "database": "db_auth_development",
    "host": "127.0.0.1",
    "dialect": "postgres"
  },
  "production": {
    "username": "admin_rauf",
    "password": "12345",
    "database": "db_auth_development",
    "host": "127.0.0.1",
    "dialect": "postgres"
  }
}
